{
    "output": {
      "logstash": {
        "port": 5045,
        "host": "51.159.25.73"
      }
    },
    "beat": {
      "name": "nobreakts",
      "version": "1.0.0",
      "tags": [
        "Nobreaks",
        "Policon",
        "Cubee"
      ],
      "elasticsearchHost": "http://cubeeapp.ddns.net/elasticsearch"
    },
    "nobreaks": [
      {
        "data": [
          {
            "interval": 300,
            "type": "General",
            "action": "append_and_update_last",
            "idDocActionUpdateLast": "nobreak_{serial_number_cpu_nobreak}_latest_general",
            "oids": [
              {
                "name": "battery_capacity",
                "oid": "1.3.6.1.4.1.318.1.1.1.2.2.1.0",
                "default": 0,
                "type": 1
              },
              {
                "name": "batery_temperature",
                "oid": "1.3.6.1.4.1.318.1.1.1.2.2.2.0",
                "default": 0,
                "type": 1
              },
              {
                "name": "battery_run_time_remaining",
                "oid": "1.3.6.1.4.1.318.1.1.1.2.2.3.0",
                "script": "{{value}} / 100",
                "default": 0,
                "type": 1
              },
              {
                "name": "battery_replace_indicator",
                "oid": "1.3.6.1.4.1.318.1.1.1.2.2.4.0",
                "default": 0,
                "type": 1
              },
              {
                "name": "battery_replace_indicator_formatted",
                "oid": "1.3.6.1.4.1.318.1.1.1.2.2.4.0",
                "script": "{{value}} == 1 ? \"Não\" : \"Sim\"",
                "default": "",
                "type": 1
              },
              {
                "name": "battery_actual_voltage",
                "oid": "1.3.6.1.4.1.318.1.1.1.2.2.8.0",
                "default": 0,
                "type": 1
              },
              {
                "name": "battery_nominal_voltage",
                "oid": "1.3.6.1.4.1.318.1.1.1.2.2.7.0",
                "default": 0,
                "type": 1,
                "enabled": 0
              },
              {
                "name": "battery_current",
                "oid": "1.3.6.1.4.1.318.1.1.1.2.2.9.0",
                "default": 0,
                "type": 1
              },
              {
                "name": "model_nobreak",
                "oid": "1.3.6.1.4.1.318.1.1.1.1.1.1.0",
                "default": "",
                "type": 2
              },
              {
                "name": "serial_number_cpu_nobreak",
                "oid": "1.3.6.1.4.1.318.1.1.1.1.2.3.0",
                "default": "",
                "type": 2
              },
              {
                "name": "date_manufacture_nobreak",
                "oid": "1.3.6.1.4.1.318.1.1.1.1.2.2.0",
                "default": "",
                "type": 2
              },
              {
                "name": "input_voltage_nobreak",
                "oid": "1.3.6.1.4.1.318.1.1.1.3.2.1.0",
                "default": 0,
                "type": 1
              },
              {
                "name": "input_frequency_nobreak",
                "oid": "1.3.6.1.4.1.318.1.1.1.3.2.4.0",
                "default": 0,
                "type": 1
              },
              {
                "name": "input_line_fail_cause_nobreak",
                "oid": "1.3.6.1.4.1.318.1.1.1.3.2.5.0",
                "default": 0,
                "type": 1
              },
              {
                "name": "input_line_fail_cause_nobreak_formatted",
                "oid": "1.3.6.1.4.1.318.1.1.1.3.2.5.0",
                "default": "",
                "script": "({{value}} == 1 ? \"Ainda não houve transferências\" : {{value}} == 2 ? \"Alta voltagem de linha\" : {{value}} == 3 ? \"Paralelo\" : {{value}} == 4 ? \"Perda de energia da rede\" : {{value}} == 5 ? \"Pequena queda de energia temporária\" : {{value}} == 6 ? \"Grande queda de energia temporária\" : {{value}} == 7 ? \"Pequeno pico\" : {{value}} == 8 ? \"Grande pico\" : {{value}} == 9 ? \"Autoteste da UPS\" : {{value}} == 10 ? \"Flutuação excessiva da tensão de entrada\" : \"\")",
                "type": 1
              },
              {
                "name": "output_voltage_nobreak",
                "oid": "1.3.6.1.4.1.318.1.1.1.4.2.1.0",
                "default": 0,
                "type": 1
              },
              {
                "name": "output_frequency_nobreak",
                "oid": "1.3.6.1.4.1.318.1.1.1.4.2.2.0",
                "default": 0,
                "type": 1
              },
              {
                "name": "test_last_diagnostics_date",
                "oid": "1.3.6.1.4.1.318.1.1.1.7.2.4.0",
                "default": "",
                "type": 2
              },
              {
                "name": "test_diagnostics_results_nobreak",
                "oid": "1.3.6.1.4.1.318.1.1.1.7.2.3.0",
                "default": 0,
                "type": 1
              },
              {
                "name": "test_diagnostics_results_nobreak_formatted",
                "oid": "1.3.6.1.4.1.318.1.1.1.7.2.3.0",
                "script": "{{value}} == 1 ? \"Sucesso\" : {{value}} == 2 ? \"Falhou\" : {{value}} == 3 ? \"Teste inválido\" : {{value}} == 4 ? \"Teste em andamento\" : \"\"",
                "default": "",
                "type": 1
              },
              {
                "name": "battery_last_replace_date",
                "oid": "1.3.6.1.4.1.318.1.1.1.2.1.3.0",
                "default": "",
                "type": 2
              },
              {
                "name": "state_output_state_nobreak",
                "oid": "1.3.6.1.4.1.318.1.1.1.11.1.1.0",
                "default": "",
                "type": 2
              },
              {
                "name": "output_status_nobreak",
                "oid": "1.3.6.1.4.1.318.1.1.1.4.1.1.0",
                "default": 0,
                "type": 1
              },
              {
                "name": "current_load_nobreak",
                "oid": "1.3.6.1.4.1.318.1.1.1.4.3.3.0",
                "script": "{{value}} / 10",
                "default": 0,
                "type": 1
              },
              {
                "name": "current_used_carga_nobreak",
                "oid": "1.3.6.1.4.1.318.1.1.1.4.3.4.0",
                "script": "{{value}} / 10.0",
                "default": 0,
                "type": 9
              },
              {
                "name": "relative_humidity_nobreak",
                "oid": "1.3.6.1.4.1.318.1.1.10.2.3.2.1.6.1",
                "default": 0,
                "type": 1
              }
            ]
          }
        ],
        "port": 161,
        "host": "192.168.30.2",
        "community": "public",
        "version": "1"
      }
    ]
  }